/*!
  \page IntI2cLdd1 IntI2cLdd1 (I2C_LDD)
**          This component encapsulates the internal I2C communication
**          interface. The implementation of the interface is based
**          on the Philips I2C-bus specification version 2.0.
**          Interface features:
**          MASTER mode
**            - Multi master communication
**            - The combined format of communication possible
**              (see SendStop parameter in MasterSend/ReceiveBlock method)
**            - 7-bit slave addressing (10-bit addressing can be made as well)
**            - Acknowledge polling provided
**            - No wait state initiated when a slave device holds the SCL line low
**            - Holding of the SCL line low by slave device recognized as 'not available bus'
**            - Invalid start/stop condition detection provided
**          SLAVE mode
**            - 7-bit slave addressing
**            - General call address detection provided
**

- \subpage IntI2cLdd1_settings
- \subpage IntI2cLdd1_regs_overview  
- \subpage IntI2cLdd1_regs_details
- \ref IntI2cLdd1_module "Component documentation" 
\page IntI2cLdd1_regs_overview Registers Initialization Overview
This page contains the initialization values for the registers of the peripheral(s) configured
by the component. 
<table>
<tr><td colspan="4" class="ttitle1">IntI2cLdd1 Initialization</td></tr>
<tr><td class="ttitle2">Address</td><td class="ttitle2">Register</td><td class="ttitle2">Register Value</td><td class="ttitle2">Register Description</td></tr>
<tr><td>0x40048034</td><td>SIM_SCGC4</td>
<td class="regNotResetVal">0xF0140470</td>
 <td>SIM_SCGC4 register, peripheral IntI2cLdd1.</td></tr>
<tr><td>0x40066002</td><td>I2C0_C1</td>
<td class="regResetVal">0x00000000</td>
 <td>I2C0_C1 register, peripheral IntI2cLdd1.</td></tr>
<tr><td>0x40066003</td><td>I2C0_S</td>
<td class="regNotResetVal">0x00000002</td>
 <td>I2C0_S register, peripheral IntI2cLdd1.</td></tr>
<tr><td>0x4004A004</td><td>PORTB_PCR1</td>
<td class="regNotResetVal">0x00000200</td>
 <td>PORTB_PCR1 register, peripheral IntI2cLdd1.</td></tr>
<tr><td>0x4004A000</td><td>PORTB_PCR0</td>
<td class="regNotResetVal">0x00000200</td>
 <td>PORTB_PCR0 register, peripheral IntI2cLdd1.</td></tr>
<tr><td>0xE000E40B</td><td>NVICIP11</td>
<td class="regNotResetVal">0x00000080</td>
 <td>NVICIP11 register, peripheral IntI2cLdd1.</td></tr>
<tr><td>0xE000E100</td><td>NVICISER0</td>
<td class="regNotResetVal">0x00030800</td>
 <td>NVICISER0 register, peripheral IntI2cLdd1.</td></tr>
<tr><td>0x40066005</td><td>I2C0_C2</td>
<td class="regResetVal">0x00000000</td>
 <td>I2C0_C2 register, peripheral IntI2cLdd1.</td></tr>
<tr><td>0x40066006</td><td>I2C0_FLT</td>
<td class="regResetVal">0x00000000</td>
 <td>I2C0_FLT register, peripheral IntI2cLdd1.</td></tr>
<tr><td>0x40066008</td><td>I2C0_SMB</td>
<td class="regNotResetVal">0x00000008</td>
 <td>I2C0_SMB register, peripheral IntI2cLdd1.</td></tr>
<tr><td>0x40066001</td><td>I2C0_F</td>
<td class="regNotResetVal">0x00000012</td>
 <td>I2C0_F register, peripheral IntI2cLdd1.</td></tr>
</table>
Color Denotes Reset Value
<br/>
\page IntI2cLdd1_regs_details Register Initialization Details
This page contains detailed description of initialization values for the 
registers of the peripheral(s) configured by the component. 

<div class="reghdr1">SIM_SCGC4</div>
<div class="regdiag">
<table class="regtbl">
<tr class="trd1r">
<td class="trd1c">Bit</td><td>31</td><td>30</td><td>29</td><td>28</td><td>27</td><td>26</td><td>25</td><td>24</td><td>23</td>
<td>22</td><td>21</td><td>20</td><td>19</td><td>18</td><td>17</td><td>16</td>
</tr>
<tr>
<td class="trd1c">R</td><td colspan="1" rowspan="2">-</td><td colspan="1" rowspan="2">-</td><td colspan="1" rowspan="2">-</td>
<td colspan="1" rowspan="2">-</td><td colspan="1" rowspan="2">-</td><td colspan="1" rowspan="2">-</td>
<td colspan="1" rowspan="2">-</td><td colspan="1" rowspan="2">-</td><td colspan="1" rowspan="2">-</td>
<td colspan="1" rowspan="2">-</td><td colspan="1" rowspan="2">-</td><td colspan="1" rowspan="2">VREF</td>
<td colspan="1" rowspan="2">CMP</td><td colspan="1" rowspan="2">USBOTG</td><td colspan="1" rowspan="2">-</td>
<td colspan="1" rowspan="2">-</td>
</tr>
<tr>
<td class="trd1c">W</td>
</tr>
<tr class="trd1r">
<td class="trd1c">Reset</td><td>1</td><td>1</td><td>1</td><td>1</td><td>0</td><td>0</td><td>0</td><td>0</td><td>0</td><td>0</td>
<td>0</td><td>1</td><td>0</td><td>0</td><td>0</td><td>0</td>
</tr>
</table>
<table class="regtbl">
<tr class="trd1r">
<td class="trd1c">Bit</td><td>15</td><td>14</td><td>13</td><td>12</td><td>11</td><td>10</td><td>9</td><td>8</td><td>7</td>
<td>6</td><td>5</td><td>4</td><td>3</td><td>2</td><td>1</td><td>0</td>
</tr>
<tr>
<td class="trd1c">R</td><td colspan="1" rowspan="2">-</td><td colspan="1" rowspan="2">-</td><td colspan="1" rowspan="2">-</td>
<td colspan="1" rowspan="2">UART2</td><td colspan="1" rowspan="2">UART1</td><td colspan="1" rowspan="2">UART0</td>
<td colspan="1" rowspan="2">-</td><td colspan="1" rowspan="2">-</td><td colspan="1" rowspan="2">-</td>
<td colspan="1" rowspan="2">I2C0</td><td colspan="1" rowspan="2">-</td><td colspan="1" rowspan="2">-</td>
<td colspan="1" rowspan="2">-</td><td colspan="1" rowspan="2">CMT</td><td colspan="1" rowspan="2">EWM</td>
<td colspan="1" rowspan="2">-</td>
</tr>
<tr>
<td class="trd1c">W</td>
</tr>
<tr class="trd1r">
<td class="trd1c">Reset</td><td>0</td><td>0</td><td>0</td><td>0</td><td>0</td><td>0</td><td>0</td><td>0</td><td>0</td><td>0</td>
<td>1</td><td>1</td><td>0</td><td>0</td><td>0</td><td>0</td>
</tr>
</table>
        
</div>
<table class="regtbl2"><tr><td class="trowtit" colspan="2">Address</td><td colspan="2">0x40048034</td></tr>
<tr class="trowtit"><td  class="trowtit" colspan="2">Initial value</td><td colspan="2">0xF0140470</td></tr>
<tr class="trowtit"><td  class="trowtit" colspan="2">After-reset value</td><td colspan="2">0xF0100030</td></tr>
<tr><td class="ttitle2">Bit</td><td class="ttitle2">Field</td><td class="ttitle2">Value</td><td class="ttitle2">Description</td></tr>
<tr><td>20</td><td>VREF</td><td>0x01</td><td>VREF Clock Gate Control</td>
<tr><td>19</td><td>CMP</td><td>0x00</td><td>Comparator Clock Gate Control</td>
<tr><td>18</td><td>USBOTG</td><td>0x01</td><td>USB Clock Gate Control</td>
<tr><td>12</td><td>UART2</td><td>0x00</td><td>UART2 Clock Gate Control</td>
<tr><td>11</td><td>UART1</td><td>0x00</td><td>UART1 Clock Gate Control</td>
<tr><td>10</td><td>UART0</td><td>0x01</td><td>UART0 Clock Gate Control</td>
<tr><td>6</td><td>I2C0</td><td>0x01</td><td>I2C0 Clock Gate Control</td>
<tr><td>2</td><td>CMT</td><td>0x00</td><td>CMT Clock Gate Control</td>
<tr><td>1</td><td>EWM</td><td>0x00</td><td>EWM Clock Gate Control</td>
</tr></table>
<div class="reghdr1">I2C0_C1</div>
<div class="regdiag">
<table class="regtbl">
<tr class="trd1r">
<td class="trd1c">Bit</td><td>7</td><td>6</td><td>5</td><td>4</td><td>3</td><td>2</td><td>1</td><td>0</td>
</tr>
<tr>
<td class="trd1c">R</td><td colspan="1" rowspan="2">IICEN</td><td colspan="1" rowspan="2">IICIE</td>
<td colspan="1" rowspan="2">MST</td><td colspan="1" rowspan="2">TX</td><td colspan="1" rowspan="2">TXAK</td>
<td colspan="1"></td><td colspan="1" rowspan="2">WUEN</td><td colspan="1" rowspan="2">DMAEN</td>
</tr>
<tr>
<td class="trd1c">W</td>
<td colspan="1">RSTA</td>
</tr>
<tr class="trd1r">
<td class="trd1c">Reset</td><td>0</td><td>0</td><td>0</td><td>0</td><td>0</td><td>0</td><td>0</td><td>0</td>
</tr>
</table>
        
</div>
<table class="regtbl2"><tr><td class="trowtit" colspan="2">Address</td><td colspan="2">0x40066002</td></tr>
<tr class="trowtit"><td  class="trowtit" colspan="2">Initial value</td><td colspan="2">0x00000000</td></tr>
<tr class="trowtit"><td  class="trowtit" colspan="2">After-reset value</td><td colspan="2">0x00000000</td></tr>
<tr><td class="ttitle2">Bit</td><td class="ttitle2">Field</td><td class="ttitle2">Value</td><td class="ttitle2">Description</td></tr>
<tr><td>7</td><td>IICEN</td><td>0x00</td><td>I2C enable</td>
<tr><td>6</td><td>IICIE</td><td>0x00</td><td>I2C interrupt enable</td>
<tr><td>5</td><td>MST</td><td>0x00</td><td>Master mode select</td>
<tr><td>4</td><td>TX</td><td>0x00</td><td>Transmit mode select</td>
<tr><td>3</td><td>TXAK</td><td>0x00</td><td>Transmit acknowledge enable</td>
<tr><td>2</td><td>RSTA</td><td>0x00</td><td>Repeat START</td>
<tr><td>1</td><td>WUEN</td><td>0x00</td><td>Wakeup enable</td>
<tr><td>0</td><td>DMAEN</td><td>0x00</td><td>DMA enable</td>
</tr></table>
<div class="reghdr1">I2C0_S</div>
<div class="regdiag">
<table class="regtbl">
<tr class="trd1r">
<td class="trd1c">Bit</td><td>7</td><td>6</td><td>5</td><td>4</td><td>3</td><td>2</td><td>1</td><td>0</td>
</tr>
<tr>
<td class="trd1c">R</td><td colspan="1" rowspan="1">TCF</td><td colspan="1" rowspan="2">IAAS</td>
<td colspan="1" rowspan="1">BUSY</td><td colspan="1" rowspan="2">ARBL</td><td colspan="1" rowspan="2">RAM</td>
<td colspan="1" rowspan="1">SRW</td><td colspan="1" rowspan="2">IICIF</td><td colspan="1" rowspan="1">RXAK</td>
</tr>
<tr>
<td class="trd1c">W</td>
<td colspan="1"></td><td colspan="1"></td><td colspan="1"></td><td colspan="1"></td>
</tr>
<tr class="trd1r">
<td class="trd1c">Reset</td><td>1</td><td>0</td><td>0</td><td>0</td><td>0</td><td>0</td><td>0</td><td>0</td>
</tr>
</table>
        
</div>
<table class="regtbl2"><tr><td class="trowtit" colspan="2">Address</td><td colspan="2">0x40066003</td></tr>
<tr class="trowtit"><td  class="trowtit" colspan="2">Initial value</td><td colspan="2">0x00000002</td></tr>
<tr class="trowtit"><td  class="trowtit" colspan="2">After-reset value</td><td colspan="2">0x00000080</td></tr>
<tr><td class="ttitle2">Bit</td><td class="ttitle2">Field</td><td class="ttitle2">Value</td><td class="ttitle2">Description</td></tr>
<tr><td>7</td><td>TCF</td><td>0x00</td><td>Transfer complete flag</td>
<tr><td>6</td><td>IAAS</td><td>0x00</td><td>Addressed as a slave</td>
<tr><td>5</td><td>BUSY</td><td>0x00</td><td>Bus busy</td>
<tr><td>4</td><td>ARBL</td><td>0x00</td><td>Arbitration lost</td>
<tr><td>3</td><td>RAM</td><td>0x00</td><td>Range address match</td>
<tr><td>2</td><td>SRW</td><td>0x00</td><td>Slave read/write</td>
<tr><td>1</td><td>IICIF</td><td>0x01</td><td>Interrupt flag</td>
<tr><td>0</td><td>RXAK</td><td>0x00</td><td>Receive acknowledge</td>
</tr></table>
<div class="reghdr1">PORTB_PCR1</div>
<div class="regdiag">
<table class="regtbl">
<tr class="trd1r">
<td class="trd1c">Bit</td><td>31</td><td>30</td><td>29</td><td>28</td><td>27</td><td>26</td><td>25</td><td>24</td><td>23</td>
<td>22</td><td>21</td><td>20</td><td>19</td><td>18</td><td>17</td><td>16</td>
</tr>
<tr>
<td class="trd1c">R</td><td colspan="1" rowspan="2">-</td><td colspan="1" rowspan="2">-</td><td colspan="1" rowspan="2">-</td>
<td colspan="1" rowspan="2">-</td><td colspan="1" rowspan="2">-</td><td colspan="1" rowspan="2">-</td>
<td colspan="1" rowspan="2">-</td><td colspan="1" rowspan="2">ISF</td><td colspan="1" rowspan="2">-</td>
<td colspan="1" rowspan="2">-</td><td colspan="1" rowspan="2">-</td><td colspan="1" rowspan="2">-</td>
<td colspan="4" rowspan="2">IRQC</td>
</tr>
<tr>
<td class="trd1c">W</td>
</tr>
<tr class="trd1r">
<td class="trd1c">Reset</td><td>0</td><td>0</td><td>0</td><td>0</td><td>0</td><td>0</td><td>0</td><td>0</td><td>0</td><td>0</td>
<td>0</td><td>0</td><td>0</td><td>0</td><td>0</td><td>0</td>
</tr>
</table>
<table class="regtbl">
<tr class="trd1r">
<td class="trd1c">Bit</td><td>15</td><td>14</td><td>13</td><td>12</td><td>11</td><td>10</td><td>9</td><td>8</td><td>7</td>
<td>6</td><td>5</td><td>4</td><td>3</td><td>2</td><td>1</td><td>0</td>
</tr>
<tr>
<td class="trd1c">R</td><td colspan="1" rowspan="2">LK</td><td colspan="1" rowspan="2">-</td><td colspan="1" rowspan="2">-</td>
<td colspan="1" rowspan="2">-</td><td colspan="1" rowspan="2">-</td><td colspan="3" rowspan="2">MUX</td>
<td colspan="1" rowspan="2">-</td><td colspan="1" rowspan="2">DSE</td><td colspan="1" rowspan="2">ODE</td>
<td colspan="1" rowspan="2">PFE</td><td colspan="1" rowspan="2">-</td><td colspan="1" rowspan="2">SRE</td>
<td colspan="1" rowspan="2">PE</td><td colspan="1" rowspan="2">PS</td>
</tr>
<tr>
<td class="trd1c">W</td>
</tr>
<tr class="trd1r">
<td class="trd1c">Reset</td><td>0</td><td>0</td><td>0</td><td>0</td><td>0</td><td>0</td><td>0</td><td>0</td><td>0</td><td>0</td>
<td>0</td><td>0</td><td>0</td><td>0</td><td>0</td><td>0</td>
</tr>
</table>
        
</div>
<table class="regtbl2"><tr><td class="trowtit" colspan="2">Address</td><td colspan="2">0x4004A004</td></tr>
<tr class="trowtit"><td  class="trowtit" colspan="2">Initial value</td><td colspan="2">0x00000200</td></tr>
<tr class="trowtit"><td  class="trowtit" colspan="2">After-reset value</td><td colspan="2">0x00000000</td></tr>
<tr><td class="ttitle2">Bit</td><td class="ttitle2">Field</td><td class="ttitle2">Value</td><td class="ttitle2">Description</td></tr>
<tr><td>24</td><td>ISF</td><td>0x00</td><td>Interrupt Status Flag</td>
<tr><td>16 - 19</td><td>IRQC</td><td>0x00</td><td>Interrupt Configuration</td>
<tr><td>15</td><td>LK</td><td>0x00</td><td>Lock Register</td>
<tr><td>8 - 10</td><td>MUX</td><td>0x00</td><td>Pin Mux Control</td>
<tr><td>6</td><td>DSE</td><td>0x00</td><td>Drive Strength Enable</td>
<tr><td>5</td><td>ODE</td><td>0x00</td><td>Open Drain Enable</td>
<tr><td>4</td><td>PFE</td><td>0x00</td><td>Passive Filter Enable</td>
<tr><td>2</td><td>SRE</td><td>0x00</td><td>Slew Rate Enable</td>
<tr><td>1</td><td>PE</td><td>0x00</td><td>Pull Enable</td>
<tr><td>0</td><td>PS</td><td>0x00</td><td>Pull Select</td>
</tr></table>
<div class="reghdr1">PORTB_PCR0</div>
<div class="regdiag">
<table class="regtbl">
<tr class="trd1r">
<td class="trd1c">Bit</td><td>31</td><td>30</td><td>29</td><td>28</td><td>27</td><td>26</td><td>25</td><td>24</td><td>23</td>
<td>22</td><td>21</td><td>20</td><td>19</td><td>18</td><td>17</td><td>16</td>
</tr>
<tr>
<td class="trd1c">R</td><td colspan="1" rowspan="2">-</td><td colspan="1" rowspan="2">-</td><td colspan="1" rowspan="2">-</td>
<td colspan="1" rowspan="2">-</td><td colspan="1" rowspan="2">-</td><td colspan="1" rowspan="2">-</td>
<td colspan="1" rowspan="2">-</td><td colspan="1" rowspan="2">ISF</td><td colspan="1" rowspan="2">-</td>
<td colspan="1" rowspan="2">-</td><td colspan="1" rowspan="2">-</td><td colspan="1" rowspan="2">-</td>
<td colspan="4" rowspan="2">IRQC</td>
</tr>
<tr>
<td class="trd1c">W</td>
</tr>
<tr class="trd1r">
<td class="trd1c">Reset</td><td>0</td><td>0</td><td>0</td><td>0</td><td>0</td><td>0</td><td>0</td><td>0</td><td>0</td><td>0</td>
<td>0</td><td>0</td><td>0</td><td>0</td><td>0</td><td>0</td>
</tr>
</table>
<table class="regtbl">
<tr class="trd1r">
<td class="trd1c">Bit</td><td>15</td><td>14</td><td>13</td><td>12</td><td>11</td><td>10</td><td>9</td><td>8</td><td>7</td>
<td>6</td><td>5</td><td>4</td><td>3</td><td>2</td><td>1</td><td>0</td>
</tr>
<tr>
<td class="trd1c">R</td><td colspan="1" rowspan="2">LK</td><td colspan="1" rowspan="2">-</td><td colspan="1" rowspan="2">-</td>
<td colspan="1" rowspan="2">-</td><td colspan="1" rowspan="2">-</td><td colspan="3" rowspan="2">MUX</td>
<td colspan="1" rowspan="2">-</td><td colspan="1" rowspan="2">DSE</td><td colspan="1" rowspan="2">ODE</td>
<td colspan="1" rowspan="2">PFE</td><td colspan="1" rowspan="2">-</td><td colspan="1" rowspan="2">SRE</td>
<td colspan="1" rowspan="2">PE</td><td colspan="1" rowspan="2">PS</td>
</tr>
<tr>
<td class="trd1c">W</td>
</tr>
<tr class="trd1r">
<td class="trd1c">Reset</td><td>0</td><td>0</td><td>0</td><td>0</td><td>0</td><td>0</td><td>0</td><td>0</td><td>0</td><td>0</td>
<td>0</td><td>0</td><td>0</td><td>0</td><td>0</td><td>0</td>
</tr>
</table>
        
</div>
<table class="regtbl2"><tr><td class="trowtit" colspan="2">Address</td><td colspan="2">0x4004A000</td></tr>
<tr class="trowtit"><td  class="trowtit" colspan="2">Initial value</td><td colspan="2">0x00000200</td></tr>
<tr class="trowtit"><td  class="trowtit" colspan="2">After-reset value</td><td colspan="2">0x00000000</td></tr>
<tr><td class="ttitle2">Bit</td><td class="ttitle2">Field</td><td class="ttitle2">Value</td><td class="ttitle2">Description</td></tr>
<tr><td>24</td><td>ISF</td><td>0x00</td><td>Interrupt Status Flag</td>
<tr><td>16 - 19</td><td>IRQC</td><td>0x00</td><td>Interrupt Configuration</td>
<tr><td>15</td><td>LK</td><td>0x00</td><td>Lock Register</td>
<tr><td>8 - 10</td><td>MUX</td><td>0x00</td><td>Pin Mux Control</td>
<tr><td>6</td><td>DSE</td><td>0x00</td><td>Drive Strength Enable</td>
<tr><td>5</td><td>ODE</td><td>0x00</td><td>Open Drain Enable</td>
<tr><td>4</td><td>PFE</td><td>0x00</td><td>Passive Filter Enable</td>
<tr><td>2</td><td>SRE</td><td>0x00</td><td>Slew Rate Enable</td>
<tr><td>1</td><td>PE</td><td>0x00</td><td>Pull Enable</td>
<tr><td>0</td><td>PS</td><td>0x00</td><td>Pull Select</td>
</tr></table>
<div class="reghdr1">NVICIP11</div>
<div class="regdiag">
<table class="regtbl">
<tr class="trd1r">
<td class="trd1c">Bit</td><td>7</td><td>6</td><td>5</td><td>4</td><td>3</td><td>2</td><td>1</td><td>0</td>
</tr>
<tr>
<td class="trd1c">R</td><td colspan="8" rowspan="2">PRI11</td>
</tr>
<tr>
<td class="trd1c">W</td>
</tr>
<tr class="trd1r">
<td class="trd1c">Reset</td><td>0</td><td>0</td><td>0</td><td>0</td><td>0</td><td>0</td><td>0</td><td>0</td>
</tr>
</table>
        
</div>
<table class="regtbl2"><tr><td class="trowtit" colspan="2">Address</td><td colspan="2">0xE000E40B</td></tr>
<tr class="trowtit"><td  class="trowtit" colspan="2">Initial value</td><td colspan="2">0x00000080</td></tr>
<tr class="trowtit"><td  class="trowtit" colspan="2">After-reset value</td><td colspan="2">0x00000000</td></tr>
<tr><td class="ttitle2">Bit</td><td class="ttitle2">Field</td><td class="ttitle2">Value</td><td class="ttitle2">Description</td></tr>
<tr><td>0 - 7</td><td>PRI11</td><td>0x80</td><td>Priority of interrupt 11</td>
</tr></table>
<div class="reghdr1">NVICISER0</div>
<div class="regdiag">
<table class="regtbl">
<tr class="trd1r">
<td class="trd1c">Bit</td><td>31</td><td>30</td><td>29</td><td>28</td><td>27</td><td>26</td><td>25</td><td>24</td><td>23</td>
<td>22</td><td>21</td><td>20</td><td>19</td><td>18</td><td>17</td><td>16</td>
</tr>
<tr>
<td class="trd1c">R</td><td colspan="16" rowspan="2">SETENA</td>
</tr>
<tr>
<td class="trd1c">W</td>
</tr>
<tr class="trd1r">
<td class="trd1c">Reset</td><td>0</td><td>0</td><td>0</td><td>0</td><td>0</td><td>0</td><td>0</td><td>0</td><td>0</td><td>0</td>
<td>0</td><td>0</td><td>0</td><td>0</td><td>0</td><td>0</td>
</tr>
</table>
<table class="regtbl">
<tr class="trd1r">
<td class="trd1c">Bit</td><td>15</td><td>14</td><td>13</td><td>12</td><td>11</td><td>10</td><td>9</td><td>8</td><td>7</td>
<td>6</td><td>5</td><td>4</td><td>3</td><td>2</td><td>1</td><td>0</td>
</tr>
<tr>
<td class="trd1c">R</td><td colspan="32" rowspan="2">SETENA</td>
</tr>
<tr>
<td class="trd1c">W</td>
</tr>
<tr class="trd1r">
<td class="trd1c">Reset</td><td>0</td><td>0</td><td>0</td><td>0</td><td>0</td><td>0</td><td>0</td><td>0</td><td>0</td><td>0</td>
<td>0</td><td>0</td><td>0</td><td>0</td><td>0</td><td>0</td>
</tr>
</table>
        
</div>
<table class="regtbl2"><tr><td class="trowtit" colspan="2">Address</td><td colspan="2">0xE000E100</td></tr>
<tr class="trowtit"><td  class="trowtit" colspan="2">Initial value</td><td colspan="2">0x00030800</td></tr>
<tr class="trowtit"><td  class="trowtit" colspan="2">After-reset value</td><td colspan="2">0x00000000</td></tr>
<tr><td class="ttitle2">Bit</td><td class="ttitle2">Field</td><td class="ttitle2">Value</td><td class="ttitle2">Description</td></tr>
<tr><td>0 - 31</td><td>SETENA</td><td>0x00</td><td>Interrupt set enable bits</td>
</tr></table>
<div class="reghdr1">I2C0_C2</div>
<div class="regdiag">
<table class="regtbl">
<tr class="trd1r">
<td class="trd1c">Bit</td><td>7</td><td>6</td><td>5</td><td>4</td><td>3</td><td>2</td><td>1</td><td>0</td>
</tr>
<tr>
<td class="trd1c">R</td><td colspan="1" rowspan="2">GCAEN</td><td colspan="1" rowspan="2">ADEXT</td>
<td colspan="1" rowspan="2">HDRS</td><td colspan="1" rowspan="2">SBRC</td><td colspan="1" rowspan="2">RMEN</td>
<td colspan="3" rowspan="2">AD</td>
</tr>
<tr>
<td class="trd1c">W</td>
</tr>
<tr class="trd1r">
<td class="trd1c">Reset</td><td>0</td><td>0</td><td>0</td><td>0</td><td>0</td><td>0</td><td>0</td><td>0</td>
</tr>
</table>
        
</div>
<table class="regtbl2"><tr><td class="trowtit" colspan="2">Address</td><td colspan="2">0x40066005</td></tr>
<tr class="trowtit"><td  class="trowtit" colspan="2">Initial value</td><td colspan="2">0x00000000</td></tr>
<tr class="trowtit"><td  class="trowtit" colspan="2">After-reset value</td><td colspan="2">0x00000000</td></tr>
<tr><td class="ttitle2">Bit</td><td class="ttitle2">Field</td><td class="ttitle2">Value</td><td class="ttitle2">Description</td></tr>
<tr><td>7</td><td>GCAEN</td><td>0x00</td><td>General call address enable</td>
<tr><td>6</td><td>ADEXT</td><td>0x00</td><td>Address extension</td>
<tr><td>5</td><td>HDRS</td><td>0x00</td><td>High drive select</td>
<tr><td>4</td><td>SBRC</td><td>0x00</td><td>Slave baud rate control</td>
<tr><td>3</td><td>RMEN</td><td>0x00</td><td>Range address matching enable</td>
<tr><td>0 - 2</td><td>AD</td><td>0x00</td><td>Slave address</td>
</tr></table>
<div class="reghdr1">I2C0_FLT</div>
<div class="regdiag">
<table class="regtbl">
<tr class="trd1r">
<td class="trd1c">Bit</td><td>7</td><td>6</td><td>5</td><td>4</td><td>3</td><td>2</td><td>1</td><td>0</td>
</tr>
<tr>
<td class="trd1c">R</td><td colspan="1" rowspan="2">-</td><td colspan="1" rowspan="2">-</td><td colspan="1" rowspan="2">-</td>
<td colspan="5" rowspan="2">FLT</td>
</tr>
<tr>
<td class="trd1c">W</td>
</tr>
<tr class="trd1r">
<td class="trd1c">Reset</td><td>0</td><td>0</td><td>0</td><td>0</td><td>0</td><td>0</td><td>0</td><td>0</td>
</tr>
</table>
        
</div>
<table class="regtbl2"><tr><td class="trowtit" colspan="2">Address</td><td colspan="2">0x40066006</td></tr>
<tr class="trowtit"><td  class="trowtit" colspan="2">Initial value</td><td colspan="2">0x00000000</td></tr>
<tr class="trowtit"><td  class="trowtit" colspan="2">After-reset value</td><td colspan="2">0x00000000</td></tr>
<tr><td class="ttitle2">Bit</td><td class="ttitle2">Field</td><td class="ttitle2">Value</td><td class="ttitle2">Description</td></tr>
<tr><td>0 - 4</td><td>FLT</td><td>0x00</td><td>I2C programmable filter factor</td>
</tr></table>
<div class="reghdr1">I2C0_SMB</div>
<div class="regdiag">
<table class="regtbl">
<tr class="trd1r">
<td class="trd1c">Bit</td><td>7</td><td>6</td><td>5</td><td>4</td><td>3</td><td>2</td><td>1</td><td>0</td>
</tr>
<tr>
<td class="trd1c">R</td><td colspan="1" rowspan="2">FACK</td><td colspan="1" rowspan="2">ALERTEN</td>
<td colspan="1" rowspan="2">SIICAEN</td><td colspan="1" rowspan="2">TCKSEL</td><td colspan="1" rowspan="2">SLTF</td>
<td colspan="1" rowspan="1">SHTF1</td><td colspan="1" rowspan="2">SHTF2</td><td colspan="1" rowspan="2">SHTF2IE</td>
</tr>
<tr>
<td class="trd1c">W</td>
<td colspan="1"></td>
</tr>
<tr class="trd1r">
<td class="trd1c">Reset</td><td>0</td><td>0</td><td>0</td><td>0</td><td>0</td><td>0</td><td>0</td><td>0</td>
</tr>
</table>
        
</div>
<table class="regtbl2"><tr><td class="trowtit" colspan="2">Address</td><td colspan="2">0x40066008</td></tr>
<tr class="trowtit"><td  class="trowtit" colspan="2">Initial value</td><td colspan="2">0x00000008</td></tr>
<tr class="trowtit"><td  class="trowtit" colspan="2">After-reset value</td><td colspan="2">0x00000000</td></tr>
<tr><td class="ttitle2">Bit</td><td class="ttitle2">Field</td><td class="ttitle2">Value</td><td class="ttitle2">Description</td></tr>
<tr><td>7</td><td>FACK</td><td>0x00</td><td>Fast NACK/ACK enable</td>
<tr><td>6</td><td>ALERTEN</td><td>0x00</td><td>SMBus alert response address enable</td>
<tr><td>5</td><td>SIICAEN</td><td>0x00</td><td>Second I2C address enable</td>
<tr><td>4</td><td>TCKSEL</td><td>0x00</td><td>Timeout counter clock select</td>
<tr><td>3</td><td>SLTF</td><td>0x01</td><td>SCL low timeout flag</td>
<tr><td>2</td><td>SHTF1</td><td>0x00</td><td>SCL high timeout flag 1</td>
<tr><td>1</td><td>SHTF2</td><td>0x00</td><td>SCL high timeout flag 2</td>
<tr><td>0</td><td>SHTF2IE</td><td>0x00</td><td>SHTF2 interrupt enable</td>
</tr></table>
<div class="reghdr1">I2C0_F</div>
<div class="regdiag">
<table class="regtbl">
<tr class="trd1r">
<td class="trd1c">Bit</td><td>7</td><td>6</td><td>5</td><td>4</td><td>3</td><td>2</td><td>1</td><td>0</td>
</tr>
<tr>
<td class="trd1c">R</td><td colspan="2" rowspan="2">MULT</td><td colspan="6" rowspan="2">ICR</td>
</tr>
<tr>
<td class="trd1c">W</td>
</tr>
<tr class="trd1r">
<td class="trd1c">Reset</td><td>0</td><td>0</td><td>0</td><td>0</td><td>0</td><td>0</td><td>0</td><td>0</td>
</tr>
</table>
        
</div>
<table class="regtbl2"><tr><td class="trowtit" colspan="2">Address</td><td colspan="2">0x40066001</td></tr>
<tr class="trowtit"><td  class="trowtit" colspan="2">Initial value</td><td colspan="2">0x00000012</td></tr>
<tr class="trowtit"><td  class="trowtit" colspan="2">After-reset value</td><td colspan="2">0x00000000</td></tr>
<tr><td class="ttitle2">Bit</td><td class="ttitle2">Field</td><td class="ttitle2">Value</td><td class="ttitle2">Description</td></tr>
<tr><td>6 - 7</td><td>MULT</td><td>0x00</td><td>The MULT bits define the multiplier factor mul. This factor is used along with the SCL divider to generate the I2C baud rate</td>
<tr><td>0 - 5</td><td>ICR</td><td>0x00</td><td>Clock rate</td>
</tr></table>
*/
/*!
\page IntI2cLdd1_settings Component Settings
\code
**          Component name                                 : IntI2cLdd1
**          I2C channel                                    : I2C0
**          Interrupt service                              : Enabled
**            Interrupt                                    : INT_I2C0
**            Interrupt priority                           : medium priority
**          Settings                                       : 
**            Mode selection                               : MASTER
**            MASTER mode                                  : Enabled
**              Initialization                             : 
**                Address mode                             : 7-bit addressing
**                Target slave address init                : 8
**            SLAVE mode                                   : Disabled
**            Pins                                         : 
**              SDA pin                                    : 
**                SDA pin                                  : ADC0_SE9/TSI0_CH6/PTB1/I2C0_SDA/FTM1_CH1/FTM1_QD_PHB
**                SDA pin signal                           : 
**              SCL pin                                    : 
**                SCL pin                                  : ADC0_SE8/TSI0_CH0/PTB0/LLWU_P5/I2C0_SCL/FTM1_CH0/FTM1_QD_PHA
**                SCL pin signal                           : 
**              High drive select                          : Disabled
**              Input Glitch filter                        : 0
**            Internal frequency (multiplier factor)       : 24 MHz
**            Bits 0-2 of Frequency divider register       : 010
**            Bits 3-5 of Frequency divider register       : 010
**            SCL frequency                                : 375 kHz
**            SDA Hold                                     : 0.542 us
**            SCL start Hold                               : 1.083 us
**            SCL stop Hold                                : 1.375 us
**            Control acknowledge bit                      : Disabled
**            Low timeout                                  : Disabled
**          Initialization                                 : 
**            Enabled in init code                         : yes
**            Auto initialization                          : no
**            Event mask                                   : 
**              OnMasterBlockSent                          : Enabled
**              OnMasterBlockReceived                      : Enabled
**              OnMasterByteReceived                       : Disabled
**              OnSlaveBlockSent                           : Disabled
**              OnSlaveBlockReceived                       : Disabled
**              OnSlaveByteReceived                        : Disabled
**              OnSlaveRxRequest                           : Disabled
**              OnSlaveTxRequest                           : Disabled
**              OnSlaveGeneralCallAddr                     : Disabled
**              OnSlaveSmBusCallAddr                       : Disabled
**              OnSlaveSmBusAlertResponse                  : Disabled
**              OnError                                    : Disabled
**          CPU clock/configuration selection              : 
**            Clock configuration 0                        : This component enabled
**            Clock configuration 1                        : This component disabled
**            Clock configuration 2                        : This component disabled
**            Clock configuration 3                        : This component disabled
**            Clock configuration 4                        : This component disabled
**            Clock configuration 5                        : This component disabled
**            Clock configuration 6                        : This component disabled
**            Clock configuration 7                        : This component disabled
<h1>
\endcode
*/
