/*!
  \page PTC PTC (Init_GPIO)
**          This file implements the GPIO (PTC) module initialization
**          according to the Peripheral Initialization settings, and
**          defines interrupt service routines prototypes.
**

- \subpage PTC_settings
- \subpage PTC_regs_overview  
- \subpage PTC_regs_details
- \ref PTC_module "Component documentation" 
\page PTC_regs_overview Registers Initialization Overview
This page contains the initialization values for the registers of the peripheral(s) configured
by the component. 
<table>
<tr><td colspan="4" class="ttitle1">PTC Initialization</td></tr>
<tr><td class="ttitle2">Address</td><td class="ttitle2">Register</td><td class="ttitle2">Register Value</td><td class="ttitle2">Register Description</td></tr>
<tr><td>0x400FF094</td><td>GPIOC_PDDR</td>
<td class="regResetVal">0x00000000</td>
 <td>GPIOC_PDDR register, peripheral PTC.</td></tr>
<tr><td>0x4004B014</td><td>PORTC_PCR5</td>
<td class="regNotResetVal">0x00000100</td>
 <td>PORTC_PCR5 register, peripheral PTC.</td></tr>
<tr><td>0x4004B004</td><td>PORTC_PCR1</td>
<td class="regNotResetVal">0x00000100</td>
 <td>PORTC_PCR1 register, peripheral PTC.</td></tr>
<tr><td>0x4004B008</td><td>PORTC_PCR2</td>
<td class="regNotResetVal">0x00000100</td>
 <td>PORTC_PCR2 register, peripheral PTC.</td></tr>
<tr><td>0x4004B00C</td><td>PORTC_PCR3</td>
<td class="regNotResetVal">0x00000100</td>
 <td>PORTC_PCR3 register, peripheral PTC.</td></tr>
<tr><td>0x4004B010</td><td>PORTC_PCR4</td>
<td class="regNotResetVal">0x00000100</td>
 <td>PORTC_PCR4 register, peripheral PTC.</td></tr>
<tr><td>0x4004B018</td><td>PORTC_PCR6</td>
<td class="regNotResetVal">0x00000100</td>
 <td>PORTC_PCR6 register, peripheral PTC.</td></tr>
<tr><td>0x4004B01C</td><td>PORTC_PCR7</td>
<td class="regNotResetVal">0x00000100</td>
 <td>PORTC_PCR7 register, peripheral PTC.</td></tr>
</table>
Color Denotes Reset Value
<br/>
\page PTC_regs_details Register Initialization Details
This page contains detailed description of initialization values for the 
registers of the peripheral(s) configured by the component. 

<div class="reghdr1">GPIOC_PDDR</div>
<div class="regdiag">
<table class="regtbl">
<tr class="trd1r">
<td class="trd1c">Bit</td><td>31</td><td>30</td><td>29</td><td>28</td><td>27</td><td>26</td><td>25</td><td>24</td><td>23</td>
<td>22</td><td>21</td><td>20</td><td>19</td><td>18</td><td>17</td><td>16</td>
</tr>
<tr>
<td class="trd1c">R</td><td colspan="16" rowspan="2">PDD</td>
</tr>
<tr>
<td class="trd1c">W</td>
</tr>
<tr class="trd1r">
<td class="trd1c">Reset</td><td>0</td><td>0</td><td>0</td><td>0</td><td>0</td><td>0</td><td>0</td><td>0</td><td>0</td><td>0</td>
<td>0</td><td>0</td><td>0</td><td>0</td><td>0</td><td>0</td>
</tr>
</table>
<table class="regtbl">
<tr class="trd1r">
<td class="trd1c">Bit</td><td>15</td><td>14</td><td>13</td><td>12</td><td>11</td><td>10</td><td>9</td><td>8</td><td>7</td>
<td>6</td><td>5</td><td>4</td><td>3</td><td>2</td><td>1</td><td>0</td>
</tr>
<tr>
<td class="trd1c">R</td><td colspan="32" rowspan="2">PDD</td>
</tr>
<tr>
<td class="trd1c">W</td>
</tr>
<tr class="trd1r">
<td class="trd1c">Reset</td><td>0</td><td>0</td><td>0</td><td>0</td><td>0</td><td>0</td><td>0</td><td>0</td><td>0</td><td>0</td>
<td>0</td><td>0</td><td>0</td><td>0</td><td>0</td><td>0</td>
</tr>
</table>
        
</div>
<table class="regtbl2"><tr><td class="trowtit" colspan="2">Address</td><td colspan="2">0x400FF094</td></tr>
<tr class="trowtit"><td  class="trowtit" colspan="2">Initial value</td><td colspan="2">0x00000000</td></tr>
<tr class="trowtit"><td  class="trowtit" colspan="2">After-reset value</td><td colspan="2">0x00000000</td></tr>
<tr><td class="ttitle2">Bit</td><td class="ttitle2">Field</td><td class="ttitle2">Value</td><td class="ttitle2">Description</td></tr>
<tr><td>0 - 31</td><td>PDD</td><td>0x00</td><td>Port data direction</td>
</tr></table>
<div class="reghdr1">PORTC_PCR5</div>
<div class="regdiag">
<table class="regtbl">
<tr class="trd1r">
<td class="trd1c">Bit</td><td>31</td><td>30</td><td>29</td><td>28</td><td>27</td><td>26</td><td>25</td><td>24</td><td>23</td>
<td>22</td><td>21</td><td>20</td><td>19</td><td>18</td><td>17</td><td>16</td>
</tr>
<tr>
<td class="trd1c">R</td><td colspan="1" rowspan="2">-</td><td colspan="1" rowspan="2">-</td><td colspan="1" rowspan="2">-</td>
<td colspan="1" rowspan="2">-</td><td colspan="1" rowspan="2">-</td><td colspan="1" rowspan="2">-</td>
<td colspan="1" rowspan="2">-</td><td colspan="1" rowspan="2">ISF</td><td colspan="1" rowspan="2">-</td>
<td colspan="1" rowspan="2">-</td><td colspan="1" rowspan="2">-</td><td colspan="1" rowspan="2">-</td>
<td colspan="4" rowspan="2">IRQC</td>
</tr>
<tr>
<td class="trd1c">W</td>
</tr>
<tr class="trd1r">
<td class="trd1c">Reset</td><td>0</td><td>0</td><td>0</td><td>0</td><td>0</td><td>0</td><td>0</td><td>0</td><td>0</td><td>0</td>
<td>0</td><td>0</td><td>0</td><td>0</td><td>0</td><td>0</td>
</tr>
</table>
<table class="regtbl">
<tr class="trd1r">
<td class="trd1c">Bit</td><td>15</td><td>14</td><td>13</td><td>12</td><td>11</td><td>10</td><td>9</td><td>8</td><td>7</td>
<td>6</td><td>5</td><td>4</td><td>3</td><td>2</td><td>1</td><td>0</td>
</tr>
<tr>
<td class="trd1c">R</td><td colspan="1" rowspan="2">LK</td><td colspan="1" rowspan="2">-</td><td colspan="1" rowspan="2">-</td>
<td colspan="1" rowspan="2">-</td><td colspan="1" rowspan="2">-</td><td colspan="3" rowspan="2">MUX</td>
<td colspan="1" rowspan="2">-</td><td colspan="1" rowspan="2">DSE</td><td colspan="1" rowspan="2">ODE</td>
<td colspan="1" rowspan="2">PFE</td><td colspan="1" rowspan="2">-</td><td colspan="1" rowspan="2">SRE</td>
<td colspan="1" rowspan="2">PE</td><td colspan="1" rowspan="2">PS</td>
</tr>
<tr>
<td class="trd1c">W</td>
</tr>
<tr class="trd1r">
<td class="trd1c">Reset</td><td>0</td><td>0</td><td>0</td><td>0</td><td>0</td><td>0</td><td>0</td><td>0</td><td>0</td><td>0</td>
<td>0</td><td>0</td><td>0</td><td>0</td><td>0</td><td>0</td>
</tr>
</table>
        
</div>
<table class="regtbl2"><tr><td class="trowtit" colspan="2">Address</td><td colspan="2">0x4004B014</td></tr>
<tr class="trowtit"><td  class="trowtit" colspan="2">Initial value</td><td colspan="2">0x00000100</td></tr>
<tr class="trowtit"><td  class="trowtit" colspan="2">After-reset value</td><td colspan="2">0x00000000</td></tr>
<tr><td class="ttitle2">Bit</td><td class="ttitle2">Field</td><td class="ttitle2">Value</td><td class="ttitle2">Description</td></tr>
<tr><td>24</td><td>ISF</td><td>0x00</td><td>Interrupt Status Flag</td>
<tr><td>16 - 19</td><td>IRQC</td><td>0x00</td><td>Interrupt Configuration</td>
<tr><td>15</td><td>LK</td><td>0x00</td><td>Lock Register</td>
<tr><td>8 - 10</td><td>MUX</td><td>0x00</td><td>Pin Mux Control</td>
<tr><td>6</td><td>DSE</td><td>0x00</td><td>Drive Strength Enable</td>
<tr><td>5</td><td>ODE</td><td>0x00</td><td>Open Drain Enable</td>
<tr><td>4</td><td>PFE</td><td>0x00</td><td>Passive Filter Enable</td>
<tr><td>2</td><td>SRE</td><td>0x00</td><td>Slew Rate Enable</td>
<tr><td>1</td><td>PE</td><td>0x00</td><td>Pull Enable</td>
<tr><td>0</td><td>PS</td><td>0x00</td><td>Pull Select</td>
</tr></table>
<div class="reghdr1">PORTC_PCR1</div>
<div class="regdiag">
<table class="regtbl">
<tr class="trd1r">
<td class="trd1c">Bit</td><td>31</td><td>30</td><td>29</td><td>28</td><td>27</td><td>26</td><td>25</td><td>24</td><td>23</td>
<td>22</td><td>21</td><td>20</td><td>19</td><td>18</td><td>17</td><td>16</td>
</tr>
<tr>
<td class="trd1c">R</td><td colspan="1" rowspan="2">-</td><td colspan="1" rowspan="2">-</td><td colspan="1" rowspan="2">-</td>
<td colspan="1" rowspan="2">-</td><td colspan="1" rowspan="2">-</td><td colspan="1" rowspan="2">-</td>
<td colspan="1" rowspan="2">-</td><td colspan="1" rowspan="2">ISF</td><td colspan="1" rowspan="2">-</td>
<td colspan="1" rowspan="2">-</td><td colspan="1" rowspan="2">-</td><td colspan="1" rowspan="2">-</td>
<td colspan="4" rowspan="2">IRQC</td>
</tr>
<tr>
<td class="trd1c">W</td>
</tr>
<tr class="trd1r">
<td class="trd1c">Reset</td><td>0</td><td>0</td><td>0</td><td>0</td><td>0</td><td>0</td><td>0</td><td>0</td><td>0</td><td>0</td>
<td>0</td><td>0</td><td>0</td><td>0</td><td>0</td><td>0</td>
</tr>
</table>
<table class="regtbl">
<tr class="trd1r">
<td class="trd1c">Bit</td><td>15</td><td>14</td><td>13</td><td>12</td><td>11</td><td>10</td><td>9</td><td>8</td><td>7</td>
<td>6</td><td>5</td><td>4</td><td>3</td><td>2</td><td>1</td><td>0</td>
</tr>
<tr>
<td class="trd1c">R</td><td colspan="1" rowspan="2">LK</td><td colspan="1" rowspan="2">-</td><td colspan="1" rowspan="2">-</td>
<td colspan="1" rowspan="2">-</td><td colspan="1" rowspan="2">-</td><td colspan="3" rowspan="2">MUX</td>
<td colspan="1" rowspan="2">-</td><td colspan="1" rowspan="2">DSE</td><td colspan="1" rowspan="2">ODE</td>
<td colspan="1" rowspan="2">PFE</td><td colspan="1" rowspan="2">-</td><td colspan="1" rowspan="2">SRE</td>
<td colspan="1" rowspan="2">PE</td><td colspan="1" rowspan="2">PS</td>
</tr>
<tr>
<td class="trd1c">W</td>
</tr>
<tr class="trd1r">
<td class="trd1c">Reset</td><td>0</td><td>0</td><td>0</td><td>0</td><td>0</td><td>0</td><td>0</td><td>0</td><td>0</td><td>0</td>
<td>0</td><td>0</td><td>0</td><td>0</td><td>0</td><td>0</td>
</tr>
</table>
        
</div>
<table class="regtbl2"><tr><td class="trowtit" colspan="2">Address</td><td colspan="2">0x4004B004</td></tr>
<tr class="trowtit"><td  class="trowtit" colspan="2">Initial value</td><td colspan="2">0x00000100</td></tr>
<tr class="trowtit"><td  class="trowtit" colspan="2">After-reset value</td><td colspan="2">0x00000000</td></tr>
<tr><td class="ttitle2">Bit</td><td class="ttitle2">Field</td><td class="ttitle2">Value</td><td class="ttitle2">Description</td></tr>
<tr><td>24</td><td>ISF</td><td>0x00</td><td>Interrupt Status Flag</td>
<tr><td>16 - 19</td><td>IRQC</td><td>0x00</td><td>Interrupt Configuration</td>
<tr><td>15</td><td>LK</td><td>0x00</td><td>Lock Register</td>
<tr><td>8 - 10</td><td>MUX</td><td>0x00</td><td>Pin Mux Control</td>
<tr><td>6</td><td>DSE</td><td>0x00</td><td>Drive Strength Enable</td>
<tr><td>5</td><td>ODE</td><td>0x00</td><td>Open Drain Enable</td>
<tr><td>4</td><td>PFE</td><td>0x00</td><td>Passive Filter Enable</td>
<tr><td>2</td><td>SRE</td><td>0x00</td><td>Slew Rate Enable</td>
<tr><td>1</td><td>PE</td><td>0x00</td><td>Pull Enable</td>
<tr><td>0</td><td>PS</td><td>0x00</td><td>Pull Select</td>
</tr></table>
<div class="reghdr1">PORTC_PCR2</div>
<div class="regdiag">
<table class="regtbl">
<tr class="trd1r">
<td class="trd1c">Bit</td><td>31</td><td>30</td><td>29</td><td>28</td><td>27</td><td>26</td><td>25</td><td>24</td><td>23</td>
<td>22</td><td>21</td><td>20</td><td>19</td><td>18</td><td>17</td><td>16</td>
</tr>
<tr>
<td class="trd1c">R</td><td colspan="1" rowspan="2">-</td><td colspan="1" rowspan="2">-</td><td colspan="1" rowspan="2">-</td>
<td colspan="1" rowspan="2">-</td><td colspan="1" rowspan="2">-</td><td colspan="1" rowspan="2">-</td>
<td colspan="1" rowspan="2">-</td><td colspan="1" rowspan="2">ISF</td><td colspan="1" rowspan="2">-</td>
<td colspan="1" rowspan="2">-</td><td colspan="1" rowspan="2">-</td><td colspan="1" rowspan="2">-</td>
<td colspan="4" rowspan="2">IRQC</td>
</tr>
<tr>
<td class="trd1c">W</td>
</tr>
<tr class="trd1r">
<td class="trd1c">Reset</td><td>0</td><td>0</td><td>0</td><td>0</td><td>0</td><td>0</td><td>0</td><td>0</td><td>0</td><td>0</td>
<td>0</td><td>0</td><td>0</td><td>0</td><td>0</td><td>0</td>
</tr>
</table>
<table class="regtbl">
<tr class="trd1r">
<td class="trd1c">Bit</td><td>15</td><td>14</td><td>13</td><td>12</td><td>11</td><td>10</td><td>9</td><td>8</td><td>7</td>
<td>6</td><td>5</td><td>4</td><td>3</td><td>2</td><td>1</td><td>0</td>
</tr>
<tr>
<td class="trd1c">R</td><td colspan="1" rowspan="2">LK</td><td colspan="1" rowspan="2">-</td><td colspan="1" rowspan="2">-</td>
<td colspan="1" rowspan="2">-</td><td colspan="1" rowspan="2">-</td><td colspan="3" rowspan="2">MUX</td>
<td colspan="1" rowspan="2">-</td><td colspan="1" rowspan="2">DSE</td><td colspan="1" rowspan="2">ODE</td>
<td colspan="1" rowspan="2">PFE</td><td colspan="1" rowspan="2">-</td><td colspan="1" rowspan="2">SRE</td>
<td colspan="1" rowspan="2">PE</td><td colspan="1" rowspan="2">PS</td>
</tr>
<tr>
<td class="trd1c">W</td>
</tr>
<tr class="trd1r">
<td class="trd1c">Reset</td><td>0</td><td>0</td><td>0</td><td>0</td><td>0</td><td>0</td><td>0</td><td>0</td><td>0</td><td>0</td>
<td>0</td><td>0</td><td>0</td><td>0</td><td>0</td><td>0</td>
</tr>
</table>
        
</div>
<table class="regtbl2"><tr><td class="trowtit" colspan="2">Address</td><td colspan="2">0x4004B008</td></tr>
<tr class="trowtit"><td  class="trowtit" colspan="2">Initial value</td><td colspan="2">0x00000100</td></tr>
<tr class="trowtit"><td  class="trowtit" colspan="2">After-reset value</td><td colspan="2">0x00000000</td></tr>
<tr><td class="ttitle2">Bit</td><td class="ttitle2">Field</td><td class="ttitle2">Value</td><td class="ttitle2">Description</td></tr>
<tr><td>24</td><td>ISF</td><td>0x00</td><td>Interrupt Status Flag</td>
<tr><td>16 - 19</td><td>IRQC</td><td>0x00</td><td>Interrupt Configuration</td>
<tr><td>15</td><td>LK</td><td>0x00</td><td>Lock Register</td>
<tr><td>8 - 10</td><td>MUX</td><td>0x00</td><td>Pin Mux Control</td>
<tr><td>6</td><td>DSE</td><td>0x00</td><td>Drive Strength Enable</td>
<tr><td>5</td><td>ODE</td><td>0x00</td><td>Open Drain Enable</td>
<tr><td>4</td><td>PFE</td><td>0x00</td><td>Passive Filter Enable</td>
<tr><td>2</td><td>SRE</td><td>0x00</td><td>Slew Rate Enable</td>
<tr><td>1</td><td>PE</td><td>0x00</td><td>Pull Enable</td>
<tr><td>0</td><td>PS</td><td>0x00</td><td>Pull Select</td>
</tr></table>
<div class="reghdr1">PORTC_PCR3</div>
<div class="regdiag">
<table class="regtbl">
<tr class="trd1r">
<td class="trd1c">Bit</td><td>31</td><td>30</td><td>29</td><td>28</td><td>27</td><td>26</td><td>25</td><td>24</td><td>23</td>
<td>22</td><td>21</td><td>20</td><td>19</td><td>18</td><td>17</td><td>16</td>
</tr>
<tr>
<td class="trd1c">R</td><td colspan="1" rowspan="2">-</td><td colspan="1" rowspan="2">-</td><td colspan="1" rowspan="2">-</td>
<td colspan="1" rowspan="2">-</td><td colspan="1" rowspan="2">-</td><td colspan="1" rowspan="2">-</td>
<td colspan="1" rowspan="2">-</td><td colspan="1" rowspan="2">ISF</td><td colspan="1" rowspan="2">-</td>
<td colspan="1" rowspan="2">-</td><td colspan="1" rowspan="2">-</td><td colspan="1" rowspan="2">-</td>
<td colspan="4" rowspan="2">IRQC</td>
</tr>
<tr>
<td class="trd1c">W</td>
</tr>
<tr class="trd1r">
<td class="trd1c">Reset</td><td>0</td><td>0</td><td>0</td><td>0</td><td>0</td><td>0</td><td>0</td><td>0</td><td>0</td><td>0</td>
<td>0</td><td>0</td><td>0</td><td>0</td><td>0</td><td>0</td>
</tr>
</table>
<table class="regtbl">
<tr class="trd1r">
<td class="trd1c">Bit</td><td>15</td><td>14</td><td>13</td><td>12</td><td>11</td><td>10</td><td>9</td><td>8</td><td>7</td>
<td>6</td><td>5</td><td>4</td><td>3</td><td>2</td><td>1</td><td>0</td>
</tr>
<tr>
<td class="trd1c">R</td><td colspan="1" rowspan="2">LK</td><td colspan="1" rowspan="2">-</td><td colspan="1" rowspan="2">-</td>
<td colspan="1" rowspan="2">-</td><td colspan="1" rowspan="2">-</td><td colspan="3" rowspan="2">MUX</td>
<td colspan="1" rowspan="2">-</td><td colspan="1" rowspan="2">DSE</td><td colspan="1" rowspan="2">ODE</td>
<td colspan="1" rowspan="2">PFE</td><td colspan="1" rowspan="2">-</td><td colspan="1" rowspan="2">SRE</td>
<td colspan="1" rowspan="2">PE</td><td colspan="1" rowspan="2">PS</td>
</tr>
<tr>
<td class="trd1c">W</td>
</tr>
<tr class="trd1r">
<td class="trd1c">Reset</td><td>0</td><td>0</td><td>0</td><td>0</td><td>0</td><td>0</td><td>0</td><td>0</td><td>0</td><td>0</td>
<td>0</td><td>0</td><td>0</td><td>0</td><td>0</td><td>0</td>
</tr>
</table>
        
</div>
<table class="regtbl2"><tr><td class="trowtit" colspan="2">Address</td><td colspan="2">0x4004B00C</td></tr>
<tr class="trowtit"><td  class="trowtit" colspan="2">Initial value</td><td colspan="2">0x00000100</td></tr>
<tr class="trowtit"><td  class="trowtit" colspan="2">After-reset value</td><td colspan="2">0x00000000</td></tr>
<tr><td class="ttitle2">Bit</td><td class="ttitle2">Field</td><td class="ttitle2">Value</td><td class="ttitle2">Description</td></tr>
<tr><td>24</td><td>ISF</td><td>0x00</td><td>Interrupt Status Flag</td>
<tr><td>16 - 19</td><td>IRQC</td><td>0x00</td><td>Interrupt Configuration</td>
<tr><td>15</td><td>LK</td><td>0x00</td><td>Lock Register</td>
<tr><td>8 - 10</td><td>MUX</td><td>0x00</td><td>Pin Mux Control</td>
<tr><td>6</td><td>DSE</td><td>0x00</td><td>Drive Strength Enable</td>
<tr><td>5</td><td>ODE</td><td>0x00</td><td>Open Drain Enable</td>
<tr><td>4</td><td>PFE</td><td>0x00</td><td>Passive Filter Enable</td>
<tr><td>2</td><td>SRE</td><td>0x00</td><td>Slew Rate Enable</td>
<tr><td>1</td><td>PE</td><td>0x00</td><td>Pull Enable</td>
<tr><td>0</td><td>PS</td><td>0x00</td><td>Pull Select</td>
</tr></table>
<div class="reghdr1">PORTC_PCR4</div>
<div class="regdiag">
<table class="regtbl">
<tr class="trd1r">
<td class="trd1c">Bit</td><td>31</td><td>30</td><td>29</td><td>28</td><td>27</td><td>26</td><td>25</td><td>24</td><td>23</td>
<td>22</td><td>21</td><td>20</td><td>19</td><td>18</td><td>17</td><td>16</td>
</tr>
<tr>
<td class="trd1c">R</td><td colspan="1" rowspan="2">-</td><td colspan="1" rowspan="2">-</td><td colspan="1" rowspan="2">-</td>
<td colspan="1" rowspan="2">-</td><td colspan="1" rowspan="2">-</td><td colspan="1" rowspan="2">-</td>
<td colspan="1" rowspan="2">-</td><td colspan="1" rowspan="2">ISF</td><td colspan="1" rowspan="2">-</td>
<td colspan="1" rowspan="2">-</td><td colspan="1" rowspan="2">-</td><td colspan="1" rowspan="2">-</td>
<td colspan="4" rowspan="2">IRQC</td>
</tr>
<tr>
<td class="trd1c">W</td>
</tr>
<tr class="trd1r">
<td class="trd1c">Reset</td><td>0</td><td>0</td><td>0</td><td>0</td><td>0</td><td>0</td><td>0</td><td>0</td><td>0</td><td>0</td>
<td>0</td><td>0</td><td>0</td><td>0</td><td>0</td><td>0</td>
</tr>
</table>
<table class="regtbl">
<tr class="trd1r">
<td class="trd1c">Bit</td><td>15</td><td>14</td><td>13</td><td>12</td><td>11</td><td>10</td><td>9</td><td>8</td><td>7</td>
<td>6</td><td>5</td><td>4</td><td>3</td><td>2</td><td>1</td><td>0</td>
</tr>
<tr>
<td class="trd1c">R</td><td colspan="1" rowspan="2">LK</td><td colspan="1" rowspan="2">-</td><td colspan="1" rowspan="2">-</td>
<td colspan="1" rowspan="2">-</td><td colspan="1" rowspan="2">-</td><td colspan="3" rowspan="2">MUX</td>
<td colspan="1" rowspan="2">-</td><td colspan="1" rowspan="2">DSE</td><td colspan="1" rowspan="2">ODE</td>
<td colspan="1" rowspan="2">PFE</td><td colspan="1" rowspan="2">-</td><td colspan="1" rowspan="2">SRE</td>
<td colspan="1" rowspan="2">PE</td><td colspan="1" rowspan="2">PS</td>
</tr>
<tr>
<td class="trd1c">W</td>
</tr>
<tr class="trd1r">
<td class="trd1c">Reset</td><td>0</td><td>0</td><td>0</td><td>0</td><td>0</td><td>0</td><td>0</td><td>0</td><td>0</td><td>0</td>
<td>0</td><td>0</td><td>0</td><td>0</td><td>0</td><td>0</td>
</tr>
</table>
        
</div>
<table class="regtbl2"><tr><td class="trowtit" colspan="2">Address</td><td colspan="2">0x4004B010</td></tr>
<tr class="trowtit"><td  class="trowtit" colspan="2">Initial value</td><td colspan="2">0x00000100</td></tr>
<tr class="trowtit"><td  class="trowtit" colspan="2">After-reset value</td><td colspan="2">0x00000000</td></tr>
<tr><td class="ttitle2">Bit</td><td class="ttitle2">Field</td><td class="ttitle2">Value</td><td class="ttitle2">Description</td></tr>
<tr><td>24</td><td>ISF</td><td>0x00</td><td>Interrupt Status Flag</td>
<tr><td>16 - 19</td><td>IRQC</td><td>0x00</td><td>Interrupt Configuration</td>
<tr><td>15</td><td>LK</td><td>0x00</td><td>Lock Register</td>
<tr><td>8 - 10</td><td>MUX</td><td>0x00</td><td>Pin Mux Control</td>
<tr><td>6</td><td>DSE</td><td>0x00</td><td>Drive Strength Enable</td>
<tr><td>5</td><td>ODE</td><td>0x00</td><td>Open Drain Enable</td>
<tr><td>4</td><td>PFE</td><td>0x00</td><td>Passive Filter Enable</td>
<tr><td>2</td><td>SRE</td><td>0x00</td><td>Slew Rate Enable</td>
<tr><td>1</td><td>PE</td><td>0x00</td><td>Pull Enable</td>
<tr><td>0</td><td>PS</td><td>0x00</td><td>Pull Select</td>
</tr></table>
<div class="reghdr1">PORTC_PCR6</div>
<div class="regdiag">
<table class="regtbl">
<tr class="trd1r">
<td class="trd1c">Bit</td><td>31</td><td>30</td><td>29</td><td>28</td><td>27</td><td>26</td><td>25</td><td>24</td><td>23</td>
<td>22</td><td>21</td><td>20</td><td>19</td><td>18</td><td>17</td><td>16</td>
</tr>
<tr>
<td class="trd1c">R</td><td colspan="1" rowspan="2">-</td><td colspan="1" rowspan="2">-</td><td colspan="1" rowspan="2">-</td>
<td colspan="1" rowspan="2">-</td><td colspan="1" rowspan="2">-</td><td colspan="1" rowspan="2">-</td>
<td colspan="1" rowspan="2">-</td><td colspan="1" rowspan="2">ISF</td><td colspan="1" rowspan="2">-</td>
<td colspan="1" rowspan="2">-</td><td colspan="1" rowspan="2">-</td><td colspan="1" rowspan="2">-</td>
<td colspan="4" rowspan="2">IRQC</td>
</tr>
<tr>
<td class="trd1c">W</td>
</tr>
<tr class="trd1r">
<td class="trd1c">Reset</td><td>0</td><td>0</td><td>0</td><td>0</td><td>0</td><td>0</td><td>0</td><td>0</td><td>0</td><td>0</td>
<td>0</td><td>0</td><td>0</td><td>0</td><td>0</td><td>0</td>
</tr>
</table>
<table class="regtbl">
<tr class="trd1r">
<td class="trd1c">Bit</td><td>15</td><td>14</td><td>13</td><td>12</td><td>11</td><td>10</td><td>9</td><td>8</td><td>7</td>
<td>6</td><td>5</td><td>4</td><td>3</td><td>2</td><td>1</td><td>0</td>
</tr>
<tr>
<td class="trd1c">R</td><td colspan="1" rowspan="2">LK</td><td colspan="1" rowspan="2">-</td><td colspan="1" rowspan="2">-</td>
<td colspan="1" rowspan="2">-</td><td colspan="1" rowspan="2">-</td><td colspan="3" rowspan="2">MUX</td>
<td colspan="1" rowspan="2">-</td><td colspan="1" rowspan="2">DSE</td><td colspan="1" rowspan="2">ODE</td>
<td colspan="1" rowspan="2">PFE</td><td colspan="1" rowspan="2">-</td><td colspan="1" rowspan="2">SRE</td>
<td colspan="1" rowspan="2">PE</td><td colspan="1" rowspan="2">PS</td>
</tr>
<tr>
<td class="trd1c">W</td>
</tr>
<tr class="trd1r">
<td class="trd1c">Reset</td><td>0</td><td>0</td><td>0</td><td>0</td><td>0</td><td>0</td><td>0</td><td>0</td><td>0</td><td>0</td>
<td>0</td><td>0</td><td>0</td><td>0</td><td>0</td><td>0</td>
</tr>
</table>
        
</div>
<table class="regtbl2"><tr><td class="trowtit" colspan="2">Address</td><td colspan="2">0x4004B018</td></tr>
<tr class="trowtit"><td  class="trowtit" colspan="2">Initial value</td><td colspan="2">0x00000100</td></tr>
<tr class="trowtit"><td  class="trowtit" colspan="2">After-reset value</td><td colspan="2">0x00000000</td></tr>
<tr><td class="ttitle2">Bit</td><td class="ttitle2">Field</td><td class="ttitle2">Value</td><td class="ttitle2">Description</td></tr>
<tr><td>24</td><td>ISF</td><td>0x00</td><td>Interrupt Status Flag</td>
<tr><td>16 - 19</td><td>IRQC</td><td>0x00</td><td>Interrupt Configuration</td>
<tr><td>15</td><td>LK</td><td>0x00</td><td>Lock Register</td>
<tr><td>8 - 10</td><td>MUX</td><td>0x00</td><td>Pin Mux Control</td>
<tr><td>6</td><td>DSE</td><td>0x00</td><td>Drive Strength Enable</td>
<tr><td>5</td><td>ODE</td><td>0x00</td><td>Open Drain Enable</td>
<tr><td>4</td><td>PFE</td><td>0x00</td><td>Passive Filter Enable</td>
<tr><td>2</td><td>SRE</td><td>0x00</td><td>Slew Rate Enable</td>
<tr><td>1</td><td>PE</td><td>0x00</td><td>Pull Enable</td>
<tr><td>0</td><td>PS</td><td>0x00</td><td>Pull Select</td>
</tr></table>
<div class="reghdr1">PORTC_PCR7</div>
<div class="regdiag">
<table class="regtbl">
<tr class="trd1r">
<td class="trd1c">Bit</td><td>31</td><td>30</td><td>29</td><td>28</td><td>27</td><td>26</td><td>25</td><td>24</td><td>23</td>
<td>22</td><td>21</td><td>20</td><td>19</td><td>18</td><td>17</td><td>16</td>
</tr>
<tr>
<td class="trd1c">R</td><td colspan="1" rowspan="2">-</td><td colspan="1" rowspan="2">-</td><td colspan="1" rowspan="2">-</td>
<td colspan="1" rowspan="2">-</td><td colspan="1" rowspan="2">-</td><td colspan="1" rowspan="2">-</td>
<td colspan="1" rowspan="2">-</td><td colspan="1" rowspan="2">ISF</td><td colspan="1" rowspan="2">-</td>
<td colspan="1" rowspan="2">-</td><td colspan="1" rowspan="2">-</td><td colspan="1" rowspan="2">-</td>
<td colspan="4" rowspan="2">IRQC</td>
</tr>
<tr>
<td class="trd1c">W</td>
</tr>
<tr class="trd1r">
<td class="trd1c">Reset</td><td>0</td><td>0</td><td>0</td><td>0</td><td>0</td><td>0</td><td>0</td><td>0</td><td>0</td><td>0</td>
<td>0</td><td>0</td><td>0</td><td>0</td><td>0</td><td>0</td>
</tr>
</table>
<table class="regtbl">
<tr class="trd1r">
<td class="trd1c">Bit</td><td>15</td><td>14</td><td>13</td><td>12</td><td>11</td><td>10</td><td>9</td><td>8</td><td>7</td>
<td>6</td><td>5</td><td>4</td><td>3</td><td>2</td><td>1</td><td>0</td>
</tr>
<tr>
<td class="trd1c">R</td><td colspan="1" rowspan="2">LK</td><td colspan="1" rowspan="2">-</td><td colspan="1" rowspan="2">-</td>
<td colspan="1" rowspan="2">-</td><td colspan="1" rowspan="2">-</td><td colspan="3" rowspan="2">MUX</td>
<td colspan="1" rowspan="2">-</td><td colspan="1" rowspan="2">DSE</td><td colspan="1" rowspan="2">ODE</td>
<td colspan="1" rowspan="2">PFE</td><td colspan="1" rowspan="2">-</td><td colspan="1" rowspan="2">SRE</td>
<td colspan="1" rowspan="2">PE</td><td colspan="1" rowspan="2">PS</td>
</tr>
<tr>
<td class="trd1c">W</td>
</tr>
<tr class="trd1r">
<td class="trd1c">Reset</td><td>0</td><td>0</td><td>0</td><td>0</td><td>0</td><td>0</td><td>0</td><td>0</td><td>0</td><td>0</td>
<td>0</td><td>0</td><td>0</td><td>0</td><td>0</td><td>0</td>
</tr>
</table>
        
</div>
<table class="regtbl2"><tr><td class="trowtit" colspan="2">Address</td><td colspan="2">0x4004B01C</td></tr>
<tr class="trowtit"><td  class="trowtit" colspan="2">Initial value</td><td colspan="2">0x00000100</td></tr>
<tr class="trowtit"><td  class="trowtit" colspan="2">After-reset value</td><td colspan="2">0x00000000</td></tr>
<tr><td class="ttitle2">Bit</td><td class="ttitle2">Field</td><td class="ttitle2">Value</td><td class="ttitle2">Description</td></tr>
<tr><td>24</td><td>ISF</td><td>0x00</td><td>Interrupt Status Flag</td>
<tr><td>16 - 19</td><td>IRQC</td><td>0x00</td><td>Interrupt Configuration</td>
<tr><td>15</td><td>LK</td><td>0x00</td><td>Lock Register</td>
<tr><td>8 - 10</td><td>MUX</td><td>0x00</td><td>Pin Mux Control</td>
<tr><td>6</td><td>DSE</td><td>0x00</td><td>Drive Strength Enable</td>
<tr><td>5</td><td>ODE</td><td>0x00</td><td>Open Drain Enable</td>
<tr><td>4</td><td>PFE</td><td>0x00</td><td>Passive Filter Enable</td>
<tr><td>2</td><td>SRE</td><td>0x00</td><td>Slew Rate Enable</td>
<tr><td>1</td><td>PE</td><td>0x00</td><td>Pull Enable</td>
<tr><td>0</td><td>PS</td><td>0x00</td><td>Pull Select</td>
</tr></table>
*/
/*!
\page PTC_settings Component Settings
\code
**          Component name                                 : PTC
**          Device                                         : PTC
**          Settings                                       : 
**            Pin 1                                        : Initialize
**              Pin direction                              : Input
**              Output value                               : No initialization
**              Open drain                                 : No initialization
**              Pull resistor                              : Enabled
**              Pull selection                             : Pull Up
**              Slew rate                                  : No initialization
**              Drive strength                             : No initialization
**              Interrupt/DMA request                      : No initialization
**              Passive filter                             : No initialization
**              Lock                                       : No initialization
**            Pin 2                                        : Initialize
**              Pin direction                              : Input
**              Output value                               : No initialization
**              Open drain                                 : No initialization
**              Pull resistor                              : Enabled
**              Pull selection                             : Pull Up
**              Slew rate                                  : No initialization
**              Drive strength                             : No initialization
**              Interrupt/DMA request                      : No initialization
**              Passive filter                             : No initialization
**              Lock                                       : No initialization
**            Pin 3                                        : Initialize
**              Pin direction                              : Input
**              Output value                               : No initialization
**              Open drain                                 : No initialization
**              Pull resistor                              : Enabled
**              Pull selection                             : Pull Up
**              Slew rate                                  : No initialization
**              Drive strength                             : No initialization
**              Interrupt/DMA request                      : No initialization
**              Passive filter                             : No initialization
**              Lock                                       : No initialization
**            Pin 4                                        : Initialize
**              Pin direction                              : Input
**              Output value                               : No initialization
**              Open drain                                 : No initialization
**              Pull resistor                              : Enabled
**              Pull selection                             : Pull Up
**              Slew rate                                  : No initialization
**              Drive strength                             : No initialization
**              Interrupt/DMA request                      : No initialization
**              Passive filter                             : No initialization
**              Lock                                       : No initialization
**            Pin 5                                        : Initialize
**              Pin direction                              : Input
**              Output value                               : No initialization
**              Open drain                                 : No initialization
**              Pull resistor                              : Enabled
**              Pull selection                             : Pull Up
**              Slew rate                                  : No initialization
**              Drive strength                             : No initialization
**              Interrupt/DMA request                      : No initialization
**              Passive filter                             : No initialization
**              Lock                                       : No initialization
**            Pin 6                                        : Do not initialize
**            Pin 7                                        : Do not initialize
**          Pin selection/routing                          : 
**            Pin 1                                        : Disabled
**            Pin 2                                        : Disabled
**            Pin 3                                        : Disabled
**            Pin 4                                        : Disabled
**            Pin 5                                        : Disabled
**            Pin 6                                        : Disabled
**            Pin 7                                        : Disabled
**          Interrupts                                     : 
**            Port interrupt                               : Enabled
**              Interrupt                                  : INT_PORTC
**              Interrupt request                          : Disabled
**              Interrupt priority                         : 0 (Highest)
**              ISR Name                                   : 
**          Initialization                                 : 
**            Call Init method                             : yes
<h1>
\endcode
*/
